Predicting shear modulus at small strain from CPTU data, using ensembled machine learning
…
3.2 CPTU data

3.2.1 Read CPTU data

From the same set of AGS 4.0 files I have extracted the data recorded
from the CPTU tests. Lets read these data and preview the first 100
rows.

data_cpt <- 
  vroom("cpt.csv") %>%
  select(-c(SCPT_TEMP, FILE_FSET)) %>% # we don't need these
  mutate(across(is.character, as.factor))
data_cpt

## # A tibble: 240,550 x 15
##    LOCA_ID    SCPG_TESN SCPT_DPTH SCPT_RES SCPT_FRES SCPT_PWP2 SCPT_FRR SCPT_QT
##    <fct>      <fct>         <dbl>    <dbl>     <dbl>     <dbl>    <dbl>   <dbl>
##  1 HKN01-PCPT 1              0       0.003     NA         NA      NA      0.004
##  2 HKN01-PCPT 1              0.02    0.042     NA         NA      NA      0.042
##  3 HKN01-PCPT 1              0.04    0.08      NA         NA      NA      0.08 
##  4 HKN01-PCPT 1              0.06    0.118     NA         NA      NA      0.119
##  5 HKN01-PCPT 1              0.08    0.157      8.35       1.9    32.8    0.157
##  6 HKN01-PCPT 1              0.1     0.354      6.62       1.8     1.97   0.355
##  7 HKN01-PCPT 1              0.12    0.527      7.5        1.9     1.50   0.528
##  8 HKN01-PCPT 1              0.14    0.602      9.32       1.9     1.52   0.603
##  9 HKN01-PCPT 1              0.16    0.705     11.1        1.9     1.54   0.706
## 10 HKN01-PCPT 1              0.18    0.827     13.0        2.1     1.56   0.828
## # ... with 240,540 more rows, and 7 more variables: SCPT_QNET <dbl>,
## #   SCPT_BQ <dbl>, SCPT_CIC1 <dbl>, SCPT_CISB <dbl>, SCPT_NQC1 <dbl>,
## #   SCPT_NRF1 <dbl>, SCPT_CUW1 <dbl>
…
